<?xml version="1.0" encoding="utf-8"?>
<!-- Generator: Adobe Illustrator 21.1.0, SVG Export Plug-In . SVG Version: 6.00 Build 0)  -->
<svg version="1.1" id="Capa_1" xmlns="http://www.w3.org/2000/svg" xmlns:xlink="http://www.w3.org/1999/xlink" x="0px" y="0px"
	 viewBox="0 0 30.4 29.4" style="enable-background:new 0 0 30.4 29.4;" xml:space="preserve">
<style type="text/css">
	.st0{fill:none;stroke:#EB2C72;stroke-width:0.6555;stroke-linejoin:round;stroke-miterlimit:10;}
</style>
<g>
	<ellipse class="st0" cx="10.6" cy="14.9" rx="9.5" ry="9.4"/>
	<polygon class="st0" points="9.3,13.6 14,11.5 11.9,16.2 7.2,18.3 	"/>
	<path class="st0" d="M11.3,15.6c-0.4,0.4-1,0.4-1.3,0c-0.4-0.4-0.4-0.9,0-1.3c0.4-0.4,1-0.4,1.3,0C11.7,14.6,11.7,15.2,11.3,15.6z"
		/>
	<line class="st0" x1="10.6" y1="6.8" x2="10.6" y2="8.4"/>
	<line class="st0" x1="10.6" y1="21.4" x2="10.6" y2="23"/>
	<line class="st0" x1="2.4" y1="14.9" x2="4.1" y2="14.9"/>
	<line class="st0" x1="17.2" y1="14.9" x2="18.9" y2="14.9"/>
</g>
</svg>
