<?xml version="1.0" encoding="utf-8"?>
<!-- Generator: Adobe Illustrator 21.1.0, SVG Export Plug-In . SVG Version: 6.00 Build 0)  -->
<svg version="1.1" id="Capa_1" xmlns="http://www.w3.org/2000/svg" xmlns:xlink="http://www.w3.org/1999/xlink" x="0px" y="0px"
	 viewBox="0 0 337 91.5" style="enable-background:new 0 0 337 91.5;" xml:space="preserve">
<style type="text/css">
	.st0{fill:#E6007E;}
	.st1{fill:#00ADDF;}
	.st2{fill:#FAB601;}
	.st3{fill:#FFFFFF;}
	.st4{fill:none;}
	.st5{enable-background:new    ;}
</style>
<path id="XMLID_37_" class="st0" d="M36.2,24.4c0.7-8.9,13-28.9,17.7-15.8c1.4,7.1-10.8,8.7-15.9,16.6C37.3,26,36.1,25.7,36.2,24.4z
	"/>
<path id="XMLID_36_" class="st1" d="M56.6,23.1c-9.1,4.3-15,10.9-19,7.8c-3.9-3.9,8.4-9.7,15.5-9.4C57,21,58.5,21.6,56.6,23.1z"/>
<path id="XMLID_35_" class="st2" d="M32.8,22.1c-3-9.6-8.8-16.3-5.2-19.8c4.4-3.4,8.5,9.6,7.2,16.6C34.9,22.7,34.1,24.1,32.8,22.1z"
	/>
<path class="st3" d="M235.3,44.6v-0.8h2.8v2.5c-0.4,0.3-0.9,0.6-1.3,0.8c-0.5,0.2-0.9,0.3-1.4,0.3c-0.7,0-1.3-0.1-1.8-0.4
	c-0.5-0.3-0.9-0.7-1.2-1.2S232,44.7,232,44c0-0.6,0.1-1.3,0.4-1.8c0.3-0.6,0.7-1,1.2-1.3s1.1-0.4,1.8-0.4c0.5,0,0.9,0.1,1.3,0.2
	c0.4,0.2,0.7,0.4,0.9,0.7s0.4,0.6,0.5,1.1l-0.8,0.2c-0.1-0.3-0.2-0.6-0.4-0.8c-0.1-0.2-0.4-0.3-0.6-0.5c-0.3-0.1-0.6-0.2-0.9-0.2
	c-0.4,0-0.8,0.1-1,0.2c-0.3,0.1-0.5,0.3-0.7,0.5s-0.3,0.4-0.4,0.7c-0.2,0.4-0.3,0.9-0.3,1.3c0,0.6,0.1,1.1,0.3,1.5s0.5,0.7,0.9,0.9
	s0.8,0.3,1.2,0.3s0.8-0.1,1.1-0.2c0.4-0.1,0.6-0.3,0.8-0.5v-1.2L235.3,44.6L235.3,44.6z M240.5,47.2v-6.7h3c0.6,0,1,0.1,1.4,0.2
	c0.3,0.1,0.6,0.3,0.7,0.6c0.2,0.3,0.3,0.6,0.3,1c0,0.5-0.2,0.9-0.5,1.2s-0.8,0.5-1.4,0.6c0.2,0.1,0.4,0.2,0.5,0.3
	c0.3,0.2,0.5,0.5,0.7,0.9l1.2,1.8h-1.1l-0.9-1.4c-0.3-0.4-0.5-0.7-0.6-0.9c-0.2-0.2-0.3-0.4-0.4-0.4c-0.1-0.1-0.3-0.1-0.4-0.2
	c-0.1,0-0.3,0-0.5,0h-1v3C241.5,47.2,240.5,47.2,240.5,47.2z M241.4,43.5h1.9c0.4,0,0.7,0,0.9-0.1s0.4-0.2,0.5-0.4s0.2-0.4,0.2-0.6
	c0-0.3-0.1-0.6-0.3-0.8s-0.6-0.3-1.1-0.3h-2.1L241.4,43.5L241.4,43.5z M247.9,44c0-1.1,0.3-2,0.9-2.6c0.6-0.6,1.4-0.9,2.3-0.9
	c0.6,0,1.2,0.1,1.7,0.4c0.5,0.3,0.9,0.7,1.1,1.2c0.3,0.5,0.4,1.1,0.4,1.8s-0.1,1.3-0.4,1.8c-0.3,0.5-0.7,0.9-1.2,1.2s-1,0.4-1.6,0.4
	s-1.2-0.2-1.7-0.5s-0.9-0.7-1.1-1.2C248.1,45.1,247.9,44.6,247.9,44z M248.8,44c0,0.8,0.2,1.4,0.6,1.9c0.4,0.5,1,0.7,1.6,0.7
	c0.7,0,1.2-0.2,1.6-0.7c0.4-0.5,0.6-1.1,0.6-2c0-0.5-0.1-1-0.3-1.4s-0.5-0.7-0.8-0.9c-0.4-0.2-0.8-0.3-1.2-0.3
	c-0.6,0-1.2,0.2-1.6,0.6C249.1,42.3,248.8,43,248.8,44z M260.8,40.6h0.9v3.9c0,0.7-0.1,1.2-0.2,1.6c-0.2,0.4-0.4,0.7-0.8,1
	c-0.4,0.2-0.9,0.4-1.6,0.4c-0.6,0-1.1-0.1-1.5-0.3s-0.7-0.5-0.9-0.9c-0.2-0.4-0.3-1-0.3-1.7v-3.9h0.9v3.9c0,0.6,0.1,1,0.2,1.3
	s0.3,0.5,0.6,0.6c0.3,0.1,0.6,0.2,1,0.2c0.6,0,1.1-0.1,1.4-0.4c0.3-0.3,0.4-0.9,0.4-1.7v-4H260.8z M264.2,47.2v-6.7h2.5
	c0.4,0,0.8,0,1,0.1c0.3,0.1,0.6,0.2,0.8,0.3c0.2,0.2,0.4,0.4,0.5,0.6s0.2,0.6,0.2,0.9c0,0.6-0.2,1-0.5,1.4c-0.4,0.4-1,0.6-2,0.6H265
	v2.7h-0.8V47.2z M265.1,43.7h1.7c0.6,0,1-0.1,1.2-0.3s0.4-0.5,0.4-0.9c0-0.3-0.1-0.5-0.2-0.7s-0.3-0.3-0.6-0.4
	c-0.1,0-0.4-0.1-0.8-0.1h-1.7V43.7z"/>
<rect id="XMLID_4_" x="231.5" y="52.6" class="st4" width="110.8" height="16.8"/>
<g class="st5">
	<path class="st3" d="M232.5,63.5V53.4h3.8c0.8,0,1.4,0.1,1.9,0.3s0.8,0.5,1.1,0.9s0.4,0.9,0.4,1.3c0,0.4-0.1,0.8-0.4,1.2
		s-0.6,0.7-1.1,0.9c0.6,0.2,1.1,0.5,1.4,0.9c0.3,0.4,0.5,0.9,0.5,1.5c0,0.5-0.1,0.9-0.3,1.3c-0.2,0.4-0.4,0.7-0.7,0.9
		s-0.7,0.4-1.1,0.5c-0.4,0.1-1,0.2-1.6,0.2h-3.9V63.5z M233.9,57.6h2.2c0.6,0,1,0,1.3-0.1s0.6-0.3,0.8-0.5s0.3-0.5,0.3-0.9
		c0-0.3-0.1-0.6-0.2-0.9c-0.2-0.3-0.4-0.4-0.7-0.5s-0.8-0.1-1.5-0.1h-2v3H233.9z M233.9,62.3h2.5c0.4,0,0.7,0,0.9,0
		c0.3-0.1,0.6-0.1,0.8-0.3c0.2-0.1,0.4-0.3,0.5-0.6c0.1-0.2,0.2-0.5,0.2-0.9s-0.1-0.7-0.3-1s-0.5-0.5-0.8-0.6s-0.8-0.2-1.5-0.2h-2.3
		L233.9,62.3L233.9,62.3z"/>
	<path class="st3" d="M246.9,63.5v-4.3l-3.9-5.8h1.6l2,3.1c0.4,0.6,0.7,1.1,1,1.7c0.3-0.5,0.7-1.1,1.1-1.8l2-3h1.6l-4,5.8v4.3H246.9
		z"/>
	<path class="st3" d="M261.2,63.5V53.4h6.8v1.2h-5.5v3.1h4.8v1.2h-4.8v4.6H261.2z"/>
	<path class="st3" d="M272,63.5V53.4h1.3v10.1H272z"/>
	<path class="st3" d="M277.7,63.5V53.4h1.4l5.3,8v-8h1.3v10.1h-1.4l-5.3-8v8H277.7z"/>
	<path class="st3" d="M288.9,63.5l3.9-10.1h1.4l4.2,10.1h-1.5l-1.2-3.1h-4.2l-1.1,3.1H288.9z M291.8,59.4h3.4l-1.1-2.8
		c-0.3-0.9-0.6-1.6-0.7-2.1c-0.1,0.7-0.3,1.3-0.5,1.9L291.8,59.4z"/>
	<path class="st3" d="M301.4,63.5V53.4h1.3v8.9h5v1.2C307.7,63.5,301.4,63.5,301.4,63.5z"/>
	<path class="st3" d="M311.5,63.5V53.4h1.3v10.1H311.5z"/>
	<path class="st3" d="M316.1,63.5l3.9-10.1h1.4l4.2,10.1h-1.5l-1.2-3.1h-4.2l-1.1,3.1H316.1z M319,59.4h3.4l-1.1-2.8
		c-0.3-0.9-0.6-1.6-0.7-2.1c-0.1,0.7-0.3,1.3-0.5,1.9L319,59.4z"/>
</g>
<g id="XMLID_14_">
	<g id="XMLID_22_">
		<path id="XMLID_23_" class="st3" d="M193.2,13.6c8.6-4.9,18-8.5,27.7-10.1c5.1-0.6,10.4-0.2,15.3,1.4c4.6,1.5,7.2,7.4,4.8,11.7
			c-2.5,4.4-7.6,6.3-12.3,7.6c0.4-2.3,1.3-5-0.3-7.1c-2.9-3.8-8.2-4.2-12.6-3.9c-7.6,1-15.1,3.3-21.9,7.1
			c-6.4,3.3-11.9,8.1-18.7,10.4c-3.5,1.3-7.2,1.8-10.9,1.4c1.7-2.8,4-5.5,4.5-8.9c0.3-2.2-0.6-4.4-1.5-6.4c-5.1,5-6.8,12.4-7.8,19.2
			c2.9-1.2,5.9-2.9,9.2-2.5c3.2,0.7,5.4,3.8,5.7,7c0.7,5.3-0.9,10.7-3.3,15.4c-1.8,3.2-4.7,6.3-8.5,6.8c-3.7,0.2-8.1-1.5-9.4-5.3
			c-2.9-7.8-3-16.5-1.1-24.5c1.7-6.3,4.6-12.8,10-16.8c2.5-2,6-3.1,9.1-2c2.3,0.6,4,2.7,4.1,5c0.1,3.7-2.2,6.7-4,9.7
			C179.1,24.8,185.4,18,193.2,13.6z M159.3,40.3c-0.1,6.4-0.6,13.5,3.5,18.8c3.4-4.2,4.9-9.7,4.5-15c-0.2-2.8-2.3-5.6-5.2-6
			C160.9,38.2,159.1,38.8,159.3,40.3z"/>
	</g>
	<path id="XMLID_21_" class="st3" d="M248.7,1.8c2.9,0,6.1,0.3,8.3,2.3c2.9,2.3,3.4,6.3,3,9.7c-0.9,7.6-6.8,14-13.9,16.4
		c-6.2,2.1-13,3-19.3,1c0.3-1,0.6-2,0.9-3c6.5-0.1,12.9-2.8,17.4-7.6c3.1-3.1,4.9-7.5,4.9-11.9C250.1,6.3,249.4,4,248.7,1.8z"/>
	<g id="XMLID_16_">
		<path id="XMLID_17_" class="st3" d="M208.9,22.8c3.3-2.9,7.9-4.3,12.2-4.1c1.9,0.1,4.1,1.2,4.4,3.4c0.4,3.1-1,6.1-2.8,8.5
			c-3,3.6-7.5,5.5-11.9,7c0.9,3.2,2.4,6.3,5.1,8.4c1.4-1.1,2.9-2.1,3.7-3.7c1-1.9,1.1-4.2,1.2-6.3c2-0.9,4.4-1.6,6.3-0.1
			c1,0.7,0.6,2,0.6,3c-0.8,7.3-9.2,12.9-16.2,10.5c-5.2-1.7-8.5-7.1-8.6-12.4C202.8,31.8,204.9,26.3,208.9,22.8z M210.7,35.4
			c3-1.9,6.2-4.2,7.4-7.7c0.8-2.1,0.1-4.4-0.3-6.6C213.1,24.2,210.8,29.8,210.7,35.4z"/>
	</g>
	<path id="XMLID_15_" class="st3" d="M196.6,25.5c1.7-1.4,4.1-1.5,6.2-1.6c-2.7,4.4-2.6,9.7-3.1,14.7c-0.3,3.5-0.3,7-0.7,10.4
		c-1.4,9.1-6.3,17.5-13.3,23.4c-8.7,7.5-20.3,11-31.6,10.8c-6.3-0.2-12.9-1.8-17.5-6.4c-7.2-6.8-7.1-19.8,0.3-26.3
		c3.4-2.7,7.7-4,11.8-5.3c-2,4.6-3.3,10-1.2,14.8c2.3,4.9,7.5,7.6,12.6,8.9c6.3,1.7,12.9,0,18.7-2.6c6.5-2.9,11.8-8.8,13.3-15.9
		c-3.1,0.3-6.4,0.5-9.1-1.3c-2.9-1.8-4.4-5.1-4.7-8.4c-0.7-4.6,0.8-9.8,4.9-12.4c1.7-1.2,3.9-1.5,5.9-1.8
		c-2.9,5.1-3.4,11.5-0.8,16.8c0.8,1.7,2.5,2.5,4,3.3c0.6-4.3,0.4-8.6,0.8-12.9C193.4,30.9,194.1,27.5,196.6,25.5z"/>
</g>
<g id="XMLID_10_">
	<path id="XMLID_11_" class="st0" d="M112.1,12c8.6-4.9,18-8.5,27.7-10.1c5.1-0.6,10.4-0.2,15.3,1.4c4.6,1.5,7.2,7.4,4.8,11.7
		c-2.5,4.4-7.6,6.3-12.3,7.6c0.4-2.3,1.3-5-0.3-7.1c-2.9-3.8-8.2-4.2-12.6-3.9c-7.6,1-15.1,3.3-21.9,7.1
		c-6.4,3.3-11.9,8.1-18.7,10.4c-3.5,1.3-7.2,1.8-10.9,1.4c1.7-2.8,4-5.5,4.5-8.9c0.3-2.2-0.6-4.4-1.5-6.4c-5.1,5-6.8,12.4-7.8,19.2
		c2.9-1.2,5.9-2.9,9.2-2.5c3.2,0.7,5.4,3.8,5.7,7c0.7,5.3-0.9,10.7-3.3,15.4c-1.8,3.2-4.7,6.3-8.5,6.8c-3.7,0.2-8.1-1.5-9.4-5.3
		C69,48,69,39.3,70.8,31.2c1.7-6.3,4.6-12.8,10-16.8c2.5-2,6-3.1,9.1-2c2.3,0.6,4,2.7,4.1,5c0.1,3.7-2.2,6.7-4,9.7
		C98.1,23.1,104.3,16.4,112.1,12z M78.2,38.6c-0.1,6.4-0.6,13.5,3.5,18.8c3.4-4.2,4.9-9.7,4.5-15c-0.2-2.8-2.3-5.6-5.2-6
		C79.8,36.6,78.5,37.1,78.2,38.6z"/>
</g>
<g id="XMLID_6_">
	<path id="XMLID_7_" class="st0" d="M127.9,21.2c3.3-2.9,7.9-4.3,12.2-4.1c1.9,0.1,4.1,1.2,4.4,3.4c0.4,3.1-1,6.1-2.8,8.5
		c-3,3.6-7.5,5.5-11.9,7c0.9,3.2,2.4,6.3,5.1,8.4c1.4-1.1,2.9-2.1,3.7-3.7c1-1.9,1.1-4.2,1.2-6.3c2-0.9,4.4-1.6,6.3-0.1
		c1,0.7,0.6,2,0.6,3c-0.8,7.3-9.2,12.9-16.2,10.5c-5.2-1.7-8.5-7.1-8.6-12.4C121.7,30.1,123.8,24.7,127.9,21.2z M129.6,33.7
		c3-1.9,6.2-4.2,7.4-7.7c0.8-2.1,0.1-4.4-0.3-6.6C132,22.6,129.8,28.2,129.6,33.7z"/>
</g>
<path id="XMLID_5_" class="st0" d="M115.5,23.9c1.7-1.4,4.1-1.5,6.2-1.6c-2.7,4.4-2.6,9.7-3.1,14.7c-0.3,3.5-0.3,7-0.7,10.4
	c-1.4,9.1-6.3,17.5-13.3,23.4c-8.7,7.5-20.3,11-31.6,10.8c-6.3-0.2-12.9-1.8-17.5-6.4c-7.2-6.8-7.1-19.8,0.3-26.3
	c3.4-2.7,7.7-4,11.8-5.3c-2,4.6-3.3,10-1.2,14.8c2.3,4.9,7.5,7.6,12.6,8.9c6.3,1.7,12.9,0,18.7-2.6c6.5-2.9,11.8-8.8,13.3-15.9
	c-3.1,0.3-6.4,0.5-9.1-1.3c-2.9-1.8-4.4-5.1-4.7-8.4c-0.7-4.6,0.8-9.8,4.9-12.4c1.7-1.2,3.9-1.5,5.9-1.8c-2.9,5.1-3.4,11.5-0.8,16.8
	c0.8,1.7,2.5,2.5,4,3.3c0.6-4.3,0.4-8.6,0.8-12.9C112.3,29.2,113,25.8,115.5,23.9z"/>
<path class="st3" d="M52.3,49.6c-0.3-0.4-0.6-0.9-0.9-1.3c0.2-5.2,0.4-9.2,6.1-12.2c2.1-1.1,2.4-3.1,1.1-4.9c-1.3-1.7-4.9-1.7-7-0.5
	c-2.6,1.4-4.5,3.1-5.9,4.9l0,0l0,0c-0.1,0.1-0.2,0.3-0.3,0.4c-0.5,0.6-1.7,1.8-3.2,2c-1.4,0.2-2.7-0.7-3.1-1.1
	C32,30.3,23.9,24.2,17.7,20.8c-2.1-1.1-4.7-0.5-6,1.3c-1.3,1.9-0.6,4.3,1.4,5.4c4.8,2.6,10.3,7.4,15.5,12.9
	c-0.4-0.3-0.9-0.5-1.3-0.7c-2.2-1.2-4.9-1.2-6.6,0.6c-1.6,1.8-1.4,4.4,0.6,5.9c0.5,0.4,1.1,0.8,1.6,1.2c-1.1-0.5-2.7-0.5-3.9-0.3
	c-1.1,0.2-2.1,0.7-2.8,1.5c-1.6,1.8-1.3,4.5,0.7,5.9c0.4,0.3,0.8,0.6,1.3,0.9c-1-0.2-2.1-0.1-2.9,0.1c-1.1,0.3-2,0.9-2.7,1.8
	c-1.4,1.9-0.5,4.1,1.3,5.8c1.4,1.3,2.7,2.4,3.9,3.5l0,0c7.6,6.2,14.5,11,22.1,10c1.7-1.7,3.5-3.3,5.4-4.8c1-0.8,2-1.5,3-2.2
	C46,62.9,47.2,54.8,52.3,49.6z"/>
</svg>
