<?xml version="1.0" encoding="utf-8"?>
<!-- Generator: Adobe Illustrator 21.1.0, SVG Export Plug-In . SVG Version: 6.00 Build 0)  -->
<svg version="1.1" id="Capa_1" xmlns="http://www.w3.org/2000/svg" xmlns:xlink="http://www.w3.org/1999/xlink" x="0px" y="0px"
	 viewBox="0 0 30.4 29.4" style="enable-background:new 0 0 30.4 29.4;" xml:space="preserve">
<style type="text/css">
	.st0{fill:none;stroke:#EB2C72;stroke-width:0.5811;stroke-linejoin:round;stroke-miterlimit:10;}
</style>
<g>
	<path class="st0" d="M5.5,4.7c-2.8,0-5,2.2-5.1,4.9c0,0.1,0,0.2,0,0.2c0,0.5,0.4,0.9,0.9,0.9s0.9-0.4,0.9-0.9
		c0-1.9,1.5-3.4,3.4-3.4S9,7.9,9,9.8s-1.5,3.4-3.4,3.4H2.8c-1.4,0-2.5,1.1-2.5,2.5v9h10.3v-5.5v-3.5v-1.9v-0.5V9.8
		C10.6,7,8.3,4.7,5.5,4.7z"/>
	<ellipse class="st0" cx="5.5" cy="18.9" rx="2.9" ry="2.9"/>
	<rect x="3.7" y="18.4" class="st0" width="3.6" height="1.1"/>
</g>
</svg>
