<?xml version="1.0" encoding="utf-8"?>
<!-- Generator: Adobe Illustrator 21.1.0, SVG Export Plug-In . SVG Version: 6.00 Build 0)  -->
<svg version="1.1" id="Capa_1" xmlns="http://www.w3.org/2000/svg" xmlns:xlink="http://www.w3.org/1999/xlink" x="0px" y="0px"
	 viewBox="0 0 30.4 29.4" style="enable-background:new 0 0 30.4 29.4;" xml:space="preserve">
<style type="text/css">
	.st0{fill:none;stroke:#EB2C72;stroke-width:0.6373;stroke-linejoin:round;stroke-miterlimit:10;}
</style>
<g>
	<path class="st0" d="M20.8,13.7c0-1-0.4-1.9-1.1-2.5l0,0L13.1,5L13,4.9l-0.1-0.1l0,0c-0.6-0.5-1.4-0.9-2.3-0.9
		c-0.9,0-1.7,0.3-2.3,0.9l0,0l0,0C8.2,4.9,8.1,4.9,8,5l-6.7,6.3l0,0c-0.6,0.6-1,1.5-1,2.5s0.4,1.8,1,2.5l0,0L7.8,23l0,0
		c0.6,0.8,1.6,1.3,2.7,1.3s2.1-0.5,2.7-1.3l0,0l6.4-6.6l0,0C20.4,15.6,20.8,14.7,20.8,13.7z"/>
	<polygon class="st0" points="8.5,10.4 6.9,11.9 3.9,8.9 5.5,7.4 	"/>
	<polygon class="st0" points="17.1,18.9 15.6,20.5 12.5,17.4 14.1,15.9 	"/>
	<polygon class="st0" points="14.1,11.9 12.5,10.4 15.6,7.3 17.2,8.8 	"/>
	<polygon class="st0" points="5.5,20.4 3.9,18.8 6.9,15.9 8.5,17.4 	"/>
	<path class="st0" d="M4,18.7c-1-1.3-1.6-3-1.6-4.8S3,10.4,4,9.1"/>
	<path class="st0" d="M15.4,20.4c-1.4,1-3,1.6-4.9,1.6s-3.6-0.6-5-1.7"/>
	<path class="st0" d="M17,9c1.1,1.4,1.7,3.1,1.7,4.9s-0.6,3.5-1.7,4.9"/>
	<path class="st0" d="M5.6,7.5c1.4-1,3.1-1.6,4.9-1.6s3.5,0.6,4.8,1.6"/>
	<path class="st0" d="M6.9,15.9c-0.3-0.6-0.5-1.2-0.5-1.9s0.2-1.4,0.5-2"/>
	<path class="st0" d="M12.5,17.4c-0.6,0.3-1.3,0.5-2,0.5s-1.4-0.2-2-0.5"/>
	<path class="st0" d="M14.1,11.9c0.3,0.6,0.5,1.3,0.5,2s-0.2,1.4-0.5,1.9"/>
	<path class="st0" d="M8.5,10.4c0.6-0.3,1.3-0.5,2-0.5s1.4,0.2,1.9,0.5"/>
</g>
</svg>
